{
	"6": [
		{
			"source": "WidgitLabs.Performance.SlowMetaQuery.slow_query_meta_value",
			"type": "warning"
		}
	],
	"11": [
		{
			"source": "WidgitLabs.Performance.SlowMetaQuery.nonperformant_comparison",
			"type": "warning"
		}
	],
	"22": [
		{
			"source": "WidgitLabs.Performance.SlowMetaQuery.nonperformant_comparison",
			"type": "warning"
		}
	],
	"30": [
		{
			"source": "WidgitLabs.Performance.SlowMetaQuery.nonperformant_comparison",
			"type": "warning"
		}
	],
	"38": [
		{
			"source": "WidgitLabs.Performance.SlowMetaQuery.nonperformant_comparison",
			"type": "warning"
		}
	],
	"48": [
		{
			"source": "WidgitLabs.Performance.SlowMetaQuery.dynamic_compare",
			"type": "warning"
		}
	],
	"56": [
		{
			"source": "WidgitLabs.Performance.SlowMetaQuery.dynamic_query",
			"type": "warning"
		}
	]
}
